<?xml version="1.0" encoding="utf-8"?>
<!-- Generator: Adobe Illustrator 25.2.0, SVG Export Plug-In . SVG Version: 6.00 Build 0)  -->
<!DOCTYPE svg PUBLIC "-//W3C//DTD SVG 1.1//EN" "http://www.w3.org/Graphics/SVG/1.1/DTD/svg11.dtd" [
	<!ENTITY ns_extend "http://ns.adobe.com/Extensibility/1.0/">
	<!ENTITY ns_ai "http://ns.adobe.com/AdobeIllustrator/10.0/">
	<!ENTITY ns_graphs "http://ns.adobe.com/Graphs/1.0/">
	<!ENTITY ns_vars "http://ns.adobe.com/Variables/1.0/">
	<!ENTITY ns_imrep "http://ns.adobe.com/ImageReplacement/1.0/">
	<!ENTITY ns_sfw "http://ns.adobe.com/SaveForWeb/1.0/">
	<!ENTITY ns_custom "http://ns.adobe.com/GenericCustomNamespace/1.0/">
	<!ENTITY ns_adobe_xpath "http://ns.adobe.com/XPath/1.0/">
]>
<svg version="1.1" id="Layer_1" xmlns:x="&ns_extend;" xmlns:i="&ns_ai;" xmlns:graph="&ns_graphs;"
	 xmlns="http://www.w3.org/2000/svg" xmlns:xlink="http://www.w3.org/1999/xlink" x="0px" y="0px" viewBox="0 0 512 512"
	 style="enable-background:new 0 0 512 512;" xml:space="preserve">
<style type="text/css">
	.st0{fill:#FFFFFF;}
</style>
<metadata>
	<sfw  xmlns="&ns_sfw;">
		<slices></slices>
		<sliceSourceBounds  bottomLeftOrigin="true" height="512" width="512" x="0" y="0"></sliceSourceBounds>
	</sfw>
</metadata>
<path class="st0" d="M72.7,512C32.6,512,0,479.7,0,440s32.6-72,72.7-72c7,0,28.1,0,82.6,39.5C165.8,415,172,427.2,172,440
	s-6.2,25-16.6,32.5C100.9,512,79.7,512,72.7,512z M72.7,408c-18,0-32.7,14.4-32.7,32s14.7,32,32.7,32c1.6,0,16.4-0.9,59.2-31.9
	c0.1,0,0.1-0.1,0.1-0.1c0,0,0-0.1,0-0.1c0,0,0,0-0.1-0.1C89.1,408.9,74.3,408,72.7,408z M172,172c-12.8,0-25-6.2-32.5-16.6
	C100,100.9,100,79.7,100,72.7C100,32.6,132.3,0,172,0s72,32.6,72,72.7c0,7,0,28.1-39.5,82.6C197,165.8,184.8,172,172,172z M172,40
	c-17.6,0-32,14.7-32,32.7c0,1.6,0.9,16.4,31.9,59.2c0,0.1,0.1,0.1,0.1,0.1c0,0,0.1,0,0.1,0c0,0,0,0,0.1-0.1
	c31-42.8,31.9-57.6,31.9-59.2C204,54.7,189.6,40,172,40z M291,294c-18.2,0-36.4-6.9-50.2-20.7c-13.5-13.5-20.8-31.4-20.8-50.5
	c0.1-19,7.5-37,21-50.5c4.8-4.8,19.5-19.5,84.6-29.8c12.6-2,25.6,2.2,34.6,11.3c9,9,13.2,22,11.3,34.6
	c-10.2,65.1-24.9,79.8-29.8,84.6v0C327.7,287,309.4,294,291,294z M331.9,182c-41.3,6.5-58.7,14.7-62.6,18.6c-6,6-9.3,13.9-9.3,22.3
	c0,8.4,3.2,16.2,9.1,22.1c12.2,12.2,32.1,12.1,44.4-0.3c3.8-3.8,12.1-21.3,18.5-62.5C332,182.1,331.9,182,331.9,182z M440,424
	c-12.8,0-25-6.2-32.5-16.6C368,352.9,368,331.7,368,324.7c0-40.1,32.3-72.7,72-72.7s72,32.6,72,72.7c0,7,0,28.1-39.5,82.6
	C465,417.8,452.8,424,440,424z M440,292c-17.6,0-32,14.7-32,32.7c0,1.6,0.9,16.4,31.9,59.2c0.1,0.1,0.1,0.1,0.1,0.1c0,0,0.1,0,0.1,0
	c0,0,0,0,0.1-0.1c31-42.8,31.9-57.6,31.9-59.2C472,306.7,457.6,292,440,292z M111.8,332c-2.1,0-4.1-0.2-6.2-0.5
	c-65.1-10.2-79.8-24.9-84.6-29.8c-13.5-13.5-21-31.4-21-50.5c-0.1-19.1,7.3-37,20.8-50.5c27.8-27.8,73.1-27.6,101,0.3h0
	c4.8,4.8,19.5,19.5,29.8,84.6c2,12.6-2.2,25.6-11.3,34.6C132.7,327.8,122.4,332,111.8,332z M71,220c-8,0-15.9,3-22,9.1
	c-5.9,5.9-9.1,13.7-9.1,22.1c0,8.4,3.3,16.3,9.3,22.3c3.8,3.8,21.3,12.1,62.5,18.5c0.1,0,0.2-0.1,0.2-0.1
	c-6.5-41.3-14.7-58.7-18.6-62.6C87.3,223.1,79.1,220,71,220z M279,478c-18.3,0-36.7-7-50.7-21c-4.8-4.8-19.5-19.5-29.8-84.6
	c-2-12.6,2.2-25.6,11.3-34.6c9-9,22-13.2,34.6-11.3c65.1,10.2,79.8,24.9,84.6,29.8c27.9,27.9,28,73.2,0.3,101
	C315.4,471.1,297.2,478,279,478z M238.2,366c-0.1,0-0.1,0.1-0.2,0.1c6.5,41.3,14.7,58.7,18.6,62.6c12.3,12.3,32.2,12.4,44.4,0.3
	c12.2-12.2,12.1-32.1-0.3-44.4C296.8,380.7,279.4,372.5,238.2,366C238.2,366,238.2,366,238.2,366z M440.1,144
	c-6.9,0-27.9,0-81.7-39.6C348,96.7,342,84.9,342,72s6-24.7,16.4-32.4C412.2,0,433.2,0,440.1,0C479.8,0,512,32.3,512,72
	S479.8,144,440.1,144z M382,72.1C382,72.1,382,72.1,382,72.1c34.2,25.2,52.6,31.9,58.1,31.9c17.6,0,31.9-14.4,31.9-32
	s-14.3-32-31.9-32c-5.5,0-23.9,6.7-58,31.9c-0.1,0-0.1,0.1-0.1,0.1C382,71.9,382,72,382,72.1z"/>
</svg>
