<?xml version="1.0" encoding="utf-8"?>
<!-- Generator: Adobe Illustrator 25.2.0, SVG Export Plug-In . SVG Version: 6.00 Build 0)  -->
<!DOCTYPE svg PUBLIC "-//W3C//DTD SVG 1.1//EN" "http://www.w3.org/Graphics/SVG/1.1/DTD/svg11.dtd" [
	<!ENTITY ns_extend "http://ns.adobe.com/Extensibility/1.0/">
	<!ENTITY ns_ai "http://ns.adobe.com/AdobeIllustrator/10.0/">
	<!ENTITY ns_graphs "http://ns.adobe.com/Graphs/1.0/">
	<!ENTITY ns_vars "http://ns.adobe.com/Variables/1.0/">
	<!ENTITY ns_imrep "http://ns.adobe.com/ImageReplacement/1.0/">
	<!ENTITY ns_sfw "http://ns.adobe.com/SaveForWeb/1.0/">
	<!ENTITY ns_custom "http://ns.adobe.com/GenericCustomNamespace/1.0/">
	<!ENTITY ns_adobe_xpath "http://ns.adobe.com/XPath/1.0/">
]>
<svg version="1.1" id="Layer_1" xmlns:x="&ns_extend;" xmlns:i="&ns_ai;" xmlns:graph="&ns_graphs;"
	 xmlns="http://www.w3.org/2000/svg" xmlns:xlink="http://www.w3.org/1999/xlink" x="0px" y="0px" viewBox="0 0 399 521.4"
	 style="enable-background:new 0 0 399 521.4;" xml:space="preserve">
<style type="text/css">
	.st0{fill:#FFFFFF;stroke:#FFFFFF;stroke-width:9;}
</style>
<metadata>
	<sfw  xmlns="&ns_sfw;">
		<slices></slices>
		<sliceSourceBounds  bottomLeftOrigin="true" height="521.4" width="399" x="0" y="0"></sliceSourceBounds>
	</sfw>
</metadata>
<g transform="translate(-56.528 4.5)">
	<path class="st0" d="M91,274.4c0,103.7,63.1,196.9,159.4,235.4l5.6,2.2l5.6-2.2c96.3-38.4,159.5-131.7,159.4-235.4V241h30v-15
		c0-74.4-60.6-135-135-135h-45c0-49.9-40.4-91-90-91v30c33.1,0,60,27.4,60,61h-45c-74.4,0-135,60.6-135,135v15h30L91,274.4z
		 M391,274.4c0.2,65.3-28.4,127.5-78.1,169.9c10.3-18.9,18.1-41.7,18.1-67.3h-30c0,42.9-29.5,77.7-45,92.9c-15.5-15.3-45-50-45-92.9
		h-30c0,25.6,7.8,48.4,18.1,67.3c-49.7-42.4-78.3-104.5-78.1-169.9v-34.3c22.7-2.6,44.4-11,62.9-24.4c8.1,36.3,32.1,67.1,65.4,83.7
		l6.7,3.4l6.7-3.4c33.3-16.6,57.3-47.4,65.4-83.7c18.6,13.4,40.2,21.8,62.9,24.4V274.4z M196,121h120c52.2,0.1,96.4,38.4,103.9,90
		H406c-30.2-0.2-58.9-13.4-78.7-36.3L301,144.7v44.3c0.1,32.7-17,63.1-45,80c-28-16.9-45.1-47.3-45-80v-44.3l-26.3,30.1
		C165,197.6,136.3,210.8,106,211H92.1C99.6,159.4,143.9,121.1,196,121z"/>
</g>
</svg>
