<svg xmlns="http://www.w3.org/2000/svg" xmlns:xlink="http://www.w3.org/1999/xlink" width="24" height="27.273" viewBox="0 0 24 27.273">
  <defs>
    <rect id="rect-1" width="24" height="27.273" x="0" y="0"/>
    <mask id="mask-2" maskContentUnits="userSpaceOnUse" maskUnits="userSpaceOnUse">
      <rect width="24" height="27.273" x="0" y="0" fill="black"/>
      <use fill="white" xlink:href="#rect-1"/>
    </mask>
  </defs>
  <g>
    <use fill="none" xlink:href="#rect-1"/>
    <g mask="url(#mask-2)">
      <path fill="rgb(130,130,130)" fill-rule="evenodd" d="M24 25.35510254v1.91760254H0v-1.91760254c0-.3515625.28928757-.6392212.6428566-.6392212H1.6875v-23.4375C1.6875.5699463 2.26071548 0 2.9732132 0h18.0535736C21.73928833 0 22.3125.56994629 22.3125 1.27838135v23.4375h1.0446434c.35357285 0 .6428566.28765869.6428566.63922119zm-13.71428299-.69244385h-6.0267868L4.285717 2.55682373l15.4553566.0532837v22.05255126h-6.0267868V21.09375c0-.3515625-.28928376-.6392212-.6428566-.6392212h-2.1428566c-.35357285 0-.6428566.2876587-.6428566.6392212v3.5689087zM6.85714341 5.75286865v2.13067627c0 .3515625.28928756.6392212.64285659.6392212h2.1428566c.35357284 0 .6428566-.2876587.6428566-.6392212V5.75286865c0-.3515625-.28928376-.63922119-.6428566-.63922119H7.5c-.35356903 0-.6428566.2876587-.6428566.6392212zm6.8571434 0v2.13067627c0 .3515625.28928756.6392212.6428566.6392212H16.5c.35357285 0 .6428566-.2876587.6428566-.6392212V5.75286865c0-.3515625-.28928375-.63922119-.6428566-.63922119h-2.1428566c-.35356903 0-.6428566.2876587-.6428566.6392212zm-6.8571434 7.24432373v-2.13067627c0-.3515625.28928756-.63922119.64285659-.63922119h2.1428566c.35357284 0 .6428566.2876587.6428566.6392212v2.13067626c0 .3515625-.28928376.6392212-.6428566.6392212H7.5c-.35356903 0-.6428566-.2876587-.6428566-.6392212zm6.8571434-2.13067627v2.13067627c0 .3515625.28928756.6392212.6428566.6392212H16.5c.35357285 0 .6428566-.2876587.6428566-.6392212v-2.13067627c0-.3515625-.28928375-.63922119-.6428566-.63922119h-2.1428566c-.35356903 0-.6428566.2876587-.6428566.6392212zM9.6428566 18.75H7.5c-.35356903 0-.6428566-.2876587-.6428566-.6392212v-2.13067626c0-.3515625.28928757-.6392212.6428566-.6392212h2.1428566c.35357284 0 .6428566.2876587.6428566.6392212v2.13067627c0 .3515625-.28928376.63922119-.6428566.63922119zm4.0714302-2.76989746v2.13067627c0 .3515625.28928757.63922119.6428566.63922119H16.5c.35357285 0 .6428566-.2876587.6428566-.6392212v-2.13067626c0-.3515625-.28928375-.6392212-.6428566-.6392212h-2.1428566c-.35356903 0-.6428566.2876587-.6428566.6392212z"/>
    </g>
  </g>
</svg>
