<?xml version="1.0" encoding="utf-8"?>
<!-- Generator: Adobe Illustrator 25.2.0, SVG Export Plug-In . SVG Version: 6.00 Build 0)  -->
<!DOCTYPE svg PUBLIC "-//W3C//DTD SVG 1.1//EN" "http://www.w3.org/Graphics/SVG/1.1/DTD/svg11.dtd" [
	<!ENTITY ns_extend "http://ns.adobe.com/Extensibility/1.0/">
	<!ENTITY ns_ai "http://ns.adobe.com/AdobeIllustrator/10.0/">
	<!ENTITY ns_graphs "http://ns.adobe.com/Graphs/1.0/">
	<!ENTITY ns_vars "http://ns.adobe.com/Variables/1.0/">
	<!ENTITY ns_imrep "http://ns.adobe.com/ImageReplacement/1.0/">
	<!ENTITY ns_sfw "http://ns.adobe.com/SaveForWeb/1.0/">
	<!ENTITY ns_custom "http://ns.adobe.com/GenericCustomNamespace/1.0/">
	<!ENTITY ns_adobe_xpath "http://ns.adobe.com/XPath/1.0/">
]>
<svg version="1.1" id="Layer_1" xmlns:x="&ns_extend;" xmlns:i="&ns_ai;" xmlns:graph="&ns_graphs;"
	 xmlns="http://www.w3.org/2000/svg" xmlns:xlink="http://www.w3.org/1999/xlink" x="0px" y="0px" viewBox="0 0 100 100"
	 style="enable-background:new 0 0 100 100;" xml:space="preserve">
<style type="text/css">
	.st0{fill:#7AAB45;}
	.st1{fill:#FFFFFF;stroke:#FFFFFF;stroke-width:0.35;stroke-miterlimit:10;}
</style>
<metadata>
	<sfw  xmlns="&ns_sfw;">
		<slices></slices>
		<sliceSourceBounds  bottomLeftOrigin="true" height="100" width="100" x="0" y="0"></sliceSourceBounds>
	</sfw>
</metadata>
<circle id="Ellipse_12" class="st0" cx="50" cy="50" r="50"/>
<g transform="translate(-33.989)">
	<path class="st1" d="M109.2,50.3c0-4.7-0.4-10.4-8.2-18.6c-0.9-0.9-1.9-1.6-3-2.3c-0.4-0.3-0.9-0.1-1.1,0.2
		c-0.2,0.4-0.1,0.9,0.2,1.1c0.9,0.6,1.8,1.3,2.6,2c-0.2,0.1,7.9,7.1,7.8,17.5c0,7.3-3.4,14.1-9.1,18.6l-0.8-7.2
		c6.3-7.5,5.3-18.7-2.2-25c-0.2-0.1-0.3-0.3-0.5-0.4l-0.4-3.4c-0.2-1.8-2.2-3-3.8-2.3c-0.3,0.1-0.7,0.3-0.9,0.6
		c-0.6,0.6-0.8,1.3-0.9,2.1c-4.2-1.2-8.7-0.8-12.7,1.1L73,33.9c-0.8-0.1-1.5,0.4-1.6,1.2L71,38c-6.4,6.7-6.6,17.2-0.4,24.1L69.7,69
		c-10.3-7.9-12.4-22.6-4.5-33c6.7-8.8,18.5-11.8,28.6-7.2c0.4,0.2,0.9,0,1.1-0.4s0-0.9-0.4-1.1l0,0C81.9,21.5,66.9,27,61.1,39.7
		c-1.5,3.3-2.3,6.9-2.3,10.5c0,6.7,2.6,13.1,7.4,17.8c1,1,2.2,2,3.4,2.8l-0.3,1.6c-0.1,0.5,0.3,0.9,0.7,0.9c0.5,0.1,0.9-0.3,0.9-0.7
		l0,0l2.4-18.1l2.6,0.3l-3.2,24.1c-0.2,1.6-2.8,1.2-2.6-0.3c0-0.1,0.3-2.2,0.3-2.2c0.1-0.5-0.3-0.9-0.7-0.9
		c-0.5-0.1-0.9,0.3-0.9,0.7l-0.2,2.2c-0.1,0.7,0.1,1.5,0.6,2.1c1.5,2,5,1.2,5.3-1.3l0.7-5.3c5.8,2.2,12.1,2.1,17.9,0l0.6,5.3
		c0.3,2.5,3.7,3.4,5.3,1.5c0.5-0.6,0.7-1.3,0.6-2.1l-0.8-7.7c1.1-0.8,2.2-1.7,3.2-2.7C106.5,63.4,109.2,57,109.2,50.3L109.2,50.3z
		 M100.1,50.3c0,3.2-1,6.3-2.8,9l-0.6-5.9l-1.6-14.8C98.3,41.7,100.1,45.9,100.1,50.3z M90.6,33.1c0-0.3,0.2-0.6,0.4-0.8
		c0.7-0.6,1.8-0.1,1.9,0.8L95,52.8l-2.6,0.3l-0.2-2.2c-0.1-0.7-0.4-1.4-1-1.8l-0.9-0.8c-0.3-0.2-0.4-0.6-0.4-0.9
		C89.9,47.3,90.6,33.1,90.6,33.1L90.6,33.1z M84,34.2c1.6,0,3.3,0.3,4.9,0.7l-0.6,12.3c0,0.9,0.3,1.7,1,2.3c0.5,0.4,1.2,0.8,1.3,1.5
		l0.3,3.1L92,64.4c-4.8,2.7-10.7,2.8-15.6,0.2l1.4-10.3l0.5-3.9c0-0.2,0.1-0.4,0.3-0.4c1.6-0.6,2.7-2,3-3.7l1.3-9.7
		c0.1-0.8-0.4-1.5-1.2-1.6l0,0l-1.9-0.2C81.1,34.4,82.5,34.2,84,34.2L84,34.2z M72.4,49.6l-0.5,3.9L71,59.9
		c-4.1-5.6-4.2-13.1-0.3-18.8l-0.5,3.6c-0.2,1.7,0.5,3.4,1.9,4.4C72.3,49.2,72.4,49.4,72.4,49.6z M73.6,52.9l0.4-3
		c0.1-0.8-0.2-1.6-0.9-2.1c-0.9-0.6-1.3-1.7-1.2-2.8l1.2-9.4l1.5,0.2l-1,7.9c-0.1,0.5,0.3,0.9,0.7,0.9c0.5,0.1,0.9-0.3,0.9-0.7
		l1-7.9l1.6,0.2l-1,7.9c-0.1,0.5,0.3,0.9,0.7,0.9c0.5,0.1,0.9-0.3,0.9-0.7l0,0l1-7.9l1.5,0.2L79.7,46c-0.1,1.1-0.9,2-1.9,2.4
		c-0.8,0.3-1.3,1-1.4,1.8l-0.4,3L73.6,52.9z M84,73.9c-3,0-5.9-0.6-8.6-1.6l0.8-5.9c5.1,2.5,11,2.4,16-0.2l0.6,6
		C90,73.3,87,73.9,84,73.9L84,73.9z M97.5,79.5c-0.3,0.3-0.7,0.4-1,0.5c-0.6,0.1-1.2-0.4-1.3-1.1l-2.6-24.2l2.6-0.3l2.6,24.2
		C97.8,79,97.7,79.3,97.5,79.5z"/>
</g>
</svg>
