<svg xmlns="http://www.w3.org/2000/svg" width="100" height="100" viewBox="0 0 100 100">
  <g id="take-order-icon" transform="translate(-64 -140)">
    <circle id="Ellipse_13" data-name="Ellipse 13" cx="50" cy="50" r="50" transform="translate(64 140)" fill="#fc0"/>
    <g id="Layer_2" data-name="Layer 2" transform="translate(86 162)">
      <path id="Path_282" data-name="Path 282" d="M52.138,40.9H49.552V37.448A21.31,21.31,0,0,0,47.69,28.69,7.759,7.759,0,1,0,36.759,17.759a21.552,21.552,0,0,0-5.483-1.612l.69-4.138A2.586,2.586,0,0,0,29.379,9H26.586A2.586,2.586,0,0,0,24,12.009l.69,4.138a21.552,21.552,0,0,0-18.241,21.3V40.9H3.862A.862.862,0,0,0,3,41.759v2.155a.862.862,0,0,0,.405.733L6.853,46.8a.862.862,0,0,0,.457.129H48.69a.862.862,0,0,0,.457-.129l3.448-2.155A.862.862,0,0,0,53,43.914V41.759A.862.862,0,0,0,52.138,40.9ZM42.655,16.759a6.034,6.034,0,1,1-6.034,6.034,6.034,6.034,0,0,1,6.034-6.034ZM25.733,11.724a.862.862,0,0,1,.862-1h2.828a.862.862,0,0,1,.862,1l-.707,4.233a20.948,20.948,0,0,0-3.121,0ZM8.172,37.448A19.828,19.828,0,0,1,35.759,19.207,7.8,7.8,0,0,0,46.241,29.69a19.707,19.707,0,0,1,1.586,7.759V40.9H8.172Zm43.1,6.034L48.44,45.207H7.56L4.724,43.483v-.862H51.276Z" transform="translate(0)" fill="#fff" stroke="#fff" stroke-width="0.8"/>
      <path id="Path_283" data-name="Path 283" d="M48,29h2V26h3V24H50V21H48v3H45v2h3Z" transform="translate(-6 -2.023)" fill="#fff" stroke="#fff" stroke-width="0.8"/>
    </g>
  </g>
</svg>
