<?xml version="1.0" encoding="utf-8"?>
<!-- Generator: Adobe Illustrator 17.0.0, SVG Export Plug-In . SVG Version: 6.00 Build 0)  -->
<!DOCTYPE svg PUBLIC "-//W3C//DTD SVG 1.1//EN" "http://www.w3.org/Graphics/SVG/1.1/DTD/svg11.dtd">
<svg version="1.1" id="Layer_1" xmlns="http://www.w3.org/2000/svg" xmlns:xlink="http://www.w3.org/1999/xlink" x="0px" y="0px"
	 width="46px" height="46px" viewBox="0 0 46 46" enable-background="new 0 0 46 46" xml:space="preserve">
<g>
	<g>
		<rect id="rect-1_1_" x="-2.25" y="-2.25" fill="none" width="50.5" height="50.5"/>
	</g>
	<defs>
		<filter id="Adobe_OpacityMaskFilter" filterUnits="userSpaceOnUse" x="1.522" y="0.84" width="43.126" height="44.319">
			<feColorMatrix  type="matrix" values="1 0 0 0 0  0 1 0 0 0  0 0 1 0 0  0 0 0 1 0"/>
		</filter>
	</defs>
	<mask maskUnits="userSpaceOnUse" x="1.522" y="0.84" width="43.126" height="44.319" id="mask-2">
		<rect x="-2.25" y="-2.25" filter="url(#Adobe_OpacityMaskFilter)" width="50.5" height="50.5"/>
		<g>
			<rect id="rect-1" x="-2.25" y="-2.25" fill="#FFFFFF" width="50.5" height="50.5"/>
		</g>
	</mask>
	<g mask="url(#mask-2)">
		<path fill="#45C4C4" d="M44.648,45.16c-0.17-11.762-9.716-21.136-21.478-21.136S1.692,33.398,1.522,45.16H44.648z"/>
		<path fill="#0BB1B5" d="M42.261,35.784c-3.58-2.557-7.841-4.092-12.614-4.092c-9.034,0-16.705,5.625-19.943,13.466H1.522
			C1.692,33.398,11.238,24.023,23,24.023C31.352,24.023,38.682,28.795,42.261,35.784z"/>
		<ellipse fill="#F6E272" cx="23" cy="12.431" rx="11.591" ry="11.591"/>
		<path fill="#FFCA19" d="M33.227,6.977c-1.705-1.023-3.58-1.534-5.795-1.534c-6.477,0-11.591,5.114-11.591,11.591
			c0,2.045,0.512,3.92,1.363,5.455c-3.58-2.045-5.795-5.795-5.795-10.057c0-6.477,5.114-11.591,11.591-11.591
			C27.432,0.84,31.352,3.227,33.227,6.977z"/>
	</g>
</g>
</svg>
