<?xml version="1.0" encoding="utf-8"?>
<!-- Generator: Adobe Illustrator 25.2.0, SVG Export Plug-In . SVG Version: 6.00 Build 0)  -->
<!DOCTYPE svg PUBLIC "-//W3C//DTD SVG 1.1//EN" "http://www.w3.org/Graphics/SVG/1.1/DTD/svg11.dtd" [
	<!ENTITY ns_extend "http://ns.adobe.com/Extensibility/1.0/">
	<!ENTITY ns_ai "http://ns.adobe.com/AdobeIllustrator/10.0/">
	<!ENTITY ns_graphs "http://ns.adobe.com/Graphs/1.0/">
	<!ENTITY ns_vars "http://ns.adobe.com/Variables/1.0/">
	<!ENTITY ns_imrep "http://ns.adobe.com/ImageReplacement/1.0/">
	<!ENTITY ns_sfw "http://ns.adobe.com/SaveForWeb/1.0/">
	<!ENTITY ns_custom "http://ns.adobe.com/GenericCustomNamespace/1.0/">
	<!ENTITY ns_adobe_xpath "http://ns.adobe.com/XPath/1.0/">
]>
<svg version="1.1" id="Layer_1" xmlns:x="&ns_extend;" xmlns:i="&ns_ai;" xmlns:graph="&ns_graphs;"
	 xmlns="http://www.w3.org/2000/svg" xmlns:xlink="http://www.w3.org/1999/xlink" x="0px" y="0px" viewBox="0 0 46 46"
	 style="enable-background:new 0 0 46 46;" xml:space="preserve">
<style type="text/css">
	.st0{fill:#4555FF;}
	.st1{fill-rule:evenodd;clip-rule:evenodd;fill:#465ED3;}
	.st2{fill:#374BDD;}
	.st3{opacity:0.9;}
	.st4{fill:none;stroke:#FFFFFF;stroke-width:3;stroke-linecap:round;stroke-linejoin:round;stroke-miterlimit:10;}
	.st5{fill:#FFFFFF;}
</style>
<metadata>
	<sfw  xmlns="&ns_sfw;">
		<slices></slices>
		<sliceSourceBounds  bottomLeftOrigin="true" height="44.8" width="44.8" x="0.6" y="0.6"></sliceSourceBounds>
	</sfw>
</metadata>
<g>
	<circle class="st0" cx="23" cy="23" r="22.4"/>
</g>
<path class="st1" d="M5.3,36.7c0,0,2.8-14.6,18.4-17.1s16.1-5.4,16.5-11c0,0-5.1-7.1-15.7-7.9S5.1,6.7,1.9,15.5S1.8,32.6,5.3,36.7z"
	/>
<path class="st2" d="M5.3,36.7c0,0,8,0.1,12.8-4.9c2.9-2.9,8.6-0.9,12.2,1C39.7,38,45,18.6,45,18.6s-0.6-5.2-4.8-10.1
	c0,0,0.6,2.9-0.9,4.8c-2.8,3.8-6.4,4.4-16.3,6.3C7.7,22.7,5.3,36.7,5.3,36.7z"/>
<g class="st3">
	<path class="st4" d="M14,19.1c0,0,12.3-0.2,12.9,12.9"/>
	<path class="st4" d="M14,25.5c0,0,5.6-0.4,6.3,6"/>
	<circle class="st5" cx="14.2" cy="31.7" r="1.2"/>
	<path class="st4" d="M14,13.1c0,0,18.2-0.2,19.1,19.1"/>
</g>
</svg>
