<svg xmlns="http://www.w3.org/2000/svg" width="8" height="14" viewBox="0 0 8 14">
  <path fill="none" stroke="rgb(100,100,100)" stroke-dasharray="0 0 0 0" stroke-linecap="round" stroke-linejoin="round" stroke-width="2" d="M.99998989 12.99999495L7 7.00000505 1.00001011.99999495"/>
</svg>
