<?xml version="1.0" encoding="utf-8"?>
<!-- Generator: Adobe Illustrator 17.0.0, SVG Export Plug-In . SVG Version: 6.00 Build 0)  -->
<!DOCTYPE svg PUBLIC "-//W3C//DTD SVG 1.1//EN" "http://www.w3.org/Graphics/SVG/1.1/DTD/svg11.dtd">
<svg version="1.1" id="Layer_1" xmlns="http://www.w3.org/2000/svg" xmlns:xlink="http://www.w3.org/1999/xlink" x="0px" y="0px"
	 width="150px" height="150px" viewBox="0 0 150 150" enable-background="new 0 0 150 150" xml:space="preserve">
<g>
	<g>
		<g>
			<circle fill="#E6E7E8" cx="75" cy="68.146" r="64"/>
		</g>
	</g>
</g>
<g>
	<g>
		<path fill="#9E9E9E" d="M103.094,79.783c-4.327-4.327-9.478-7.531-15.098-9.47c6.019-4.146,9.973-11.084,9.973-18.929
			c0-12.665-10.304-22.97-22.97-22.97s-22.97,10.304-22.97,22.97c0,7.845,3.954,14.783,9.974,18.929
			c-5.62,1.939-10.771,5.143-15.098,9.47c-7.504,7.504-11.637,17.482-11.637,28.094h6.208c0-18.485,15.038-33.523,33.523-33.523
			s33.523,15.038,33.523,33.523h6.208C114.731,97.265,110.599,87.288,103.094,79.783z M75,68.146
			c-9.242,0-16.762-7.519-16.762-16.762S65.758,34.623,75,34.623s16.762,7.519,16.762,16.762S84.242,68.146,75,68.146z"/>
	</g>
</g>
<g>
	<g id="XMLID_500_">
		<g>
			<g id="XMLID_980_">
				<g id="XMLID_981_">
					<g id="XMLID_982_">
						<g id="XMLID_983_">
							<g id="XMLID_984_">
								<g id="XMLID_986_">
									<g id="XMLID_989_">
										<g id="XMLID_1008_">
											<g id="XMLID_1009_">
												<g id="XMLID_1010_">
													<g id="XMLID_1011_">
														<g id="XMLID_1012_">
															<g id="XMLID_1013_">
																<g id="XMLID_1014_">
																	<circle fill="#436375" cx="114.171" cy="123.041" r="21.333"/>
																</g>
															</g>
														</g>
													</g>
												</g>
											</g>
										</g>
									</g>
								</g>
							</g>
						</g>
					</g>
				</g>
			</g>
		</g>
	</g>
	<g>
		<g>
			<g>
				<g>
					<path fill="#FFFFFF" d="M120.276,120.701h-3.651v-4.719c0-1.424-1.159-2.583-2.583-2.583s-2.583,1.159-2.583,2.583v4.718
						h-3.651v-4.718c0-3.438,2.797-6.235,6.235-6.235s6.235,2.797,6.235,6.235V120.701z"/>
				</g>
				<g>
					<g>
						<g>
							<g>
								<path fill="#E9EDF5" d="M120.276,115.983v4.719h-3.652v-4.719c0-1.381-1.089-2.512-2.454-2.58v-3.654
									C117.549,109.819,120.276,112.588,120.276,115.983z"/>
							</g>
						</g>
					</g>
				</g>
				<g>
					<path fill="#FFAA20" d="M116.801,134.961h-5.259c-3.308,0-5.99-2.682-5.99-5.99v-8.624h17.24v8.624
						C122.791,132.279,120.109,134.961,116.801,134.961z"/>
				</g>
				<g>
					<path fill="#FF8900" d="M122.791,120.347v8.623c0,3.308-2.682,5.99-5.99,5.99h-2.629v-14.614H122.791z"/>
				</g>
			</g>
		</g>
		<path fill="#9E653E" d="M116.294,126.145c0-1.172-0.95-2.123-2.123-2.123c-1.172,0-2.123,0.95-2.123,2.123
			c0,0.638,0.282,1.21,0.728,1.599l-0.556,3.542h3.901l-0.556-3.542C116.012,127.355,116.294,126.783,116.294,126.145z"/>
		<path fill="#835637" d="M115.566,127.744l0.556,3.542h-1.951v-7.264c1.172,0,2.123,0.95,2.123,2.123
			C116.294,126.783,116.012,127.355,115.566,127.744z"/>
	</g>
</g>
</svg>
