<svg xmlns="http://www.w3.org/2000/svg" width="16.5" height="14.202" viewBox="0 0 16.5 14.202">
  <path fill="none" stroke="rgb(255,255,255)" stroke-dasharray="0 0 0 0" stroke-linecap="round" stroke-linejoin="round" stroke-width="1.5" d="M.89615638 1.51435005L6.51824153 8.0055972c.08406639.09570468.13077844.21808722.13167647.34498381V12.293442c-.00111963.11332067.07137597.21451398.17968004.2508072l2.67186555.88129486c.08101897.02688065.17014543.01334286.23932693-.03635236.0691815-.04969523.1099098-.12943614.1093657-.2141244V8.35058102c.00136023-.12710828.04867329-.24951596.13334325-.34498381l5.62041837-6.49124716c.1186902-.13702807.14608216-.32999505.07014814-.49416947-.07593402-.16417442-.24130849-.26953483-.42350778-.26981767H1.2511828C1.06868186.75.90271178.85511818.8263559 1.01942966.75 1.18374114.77726944 1.37709512.89615638 1.51435005h0z"/>
</svg>
