<?xml version="1.0" encoding="utf-8"?>
<!-- Generator: Adobe Illustrator 17.0.0, SVG Export Plug-In . SVG Version: 6.00 Build 0)  -->
<!DOCTYPE svg PUBLIC "-//W3C//DTD SVG 1.1//EN" "http://www.w3.org/Graphics/SVG/1.1/DTD/svg11.dtd">
<svg version="1.1" id="Layer_1" xmlns="http://www.w3.org/2000/svg" xmlns:xlink="http://www.w3.org/1999/xlink" x="0px" y="0px"
	 width="24px" height="20px" viewBox="-1.21 -0.501 24 20" enable-background="new -1.21 -0.501 24 20" xml:space="preserve">
<path fill="none" stroke="#A6A6A6" stroke-linecap="round" stroke-linejoin="round" stroke-dasharray="0,0,0,0" d="M20.108,1.681
	c-1.086-1.076-2.559-1.68-4.096-1.68c-1.536,0-3.01,0.604-4.096,1.68L10.8,2.785L9.684,1.681C8.221,0.232,6.088-0.335,4.088,0.194
	S0.525,2.269-0.012,4.248s0.034,4.091,1.498,5.54l1.116,1.104l8.192,8.107l8.183-8.107l1.116-1.104
	c1.087-1.075,1.698-2.533,1.698-4.054s-0.611-2.979-1.698-4.054C20.092,1.681,20.108,1.681,20.108,1.681z"/>
</svg>
