<svg xmlns="http://www.w3.org/2000/svg" xmlns:xlink="http://www.w3.org/1999/xlink" width="25" height="25" viewBox="0 0 25 25">
  <defs>
    <rect id="rect-1" width="25" height="25" x="0" y="0"/>
    <mask id="mask-2" maskContentUnits="userSpaceOnUse" maskUnits="userSpaceOnUse">
      <rect width="25" height="25" x="0" y="0" fill="black"/>
      <use fill="white" xlink:href="#rect-1"/>
    </mask>
  </defs>
  <g>
    <use fill="none" xlink:href="#rect-1"/>
    <g mask="url(#mask-2)">
      <path fill="rgb(226,229,231)" fill-rule="evenodd" d="M6.25 0c-.859375 0-1.5625.703125-1.5625 1.5625v21.875C4.6875 24.296875 5.390625 25 6.25 25h15.625c.859375 0 1.5625-.703125 1.5625-1.5625V6.25L17.1875 0H6.25z"/>
      <path fill="rgb(176,183,189)" fill-rule="evenodd" d="M18.75 6.25h4.6875L17.1875 0v4.6875c0 .859375.703125 1.5625 1.5625 1.5625z"/>
      <path fill="rgb(202,209,216)" fill-rule="evenodd" d="M23.4375 10.9375L18.75 6.25h4.6875v4.6875z"/>
      <path fill="rgb(241,86,66)" fill-rule="evenodd" d="M20.3125 20.3125c0 .4296875-.3515625.78125-.78125.78125H2.34375c-.4296875 0-.78125-.3515625-.78125-.78125V12.5c0-.4296875.3515625-.78125.78125-.78125h17.1875c.4296875 0 .78125.3515625.78125.78125v7.8125z"/>
      <g>
        <path fill="rgb(255,255,255)" fill-rule="evenodd" d="M5.39218521 14.37109375c-.26171875 0-.42421722.2250061-.42421722.4312439v3.5171814c0 .2750244.21796798.43048095.42421722.43048095.22500229 0 .40000153-.15545654.40000153-.43048096v-.82498169h1.04296875c.8125 0 1.54375076-.55000305 1.54375076-1.5375061 0-1.04219055-.73125076-1.5859375-1.54375076-1.5859375H5.3921852zm.40000153 2.34295654v-1.5562439h1.04296875c.41875076 0 .75.36250306.75.79922486 0 .38749695-.33124924.75701904-.75.75701904H5.79218674z"/>
        <path fill="rgb(255,255,255)" fill-rule="evenodd" d="M9.17109299 18.36328125c0 .27420044.22499847.38671875.43125152.38671875h1.48671723c2.7359352 0 2.7984352-4.32266235-.05625153-4.32266235h-1.4304657c-.20625305 0-.43125152.1632843-.43125152.38749694v3.54844666zm.82500076-.375v-2.7984314h1.03672028c1.76171875 0 1.68671417 2.7984314 0 2.7984314H9.99609375z"/>
        <path fill="rgb(255,255,255)" fill-rule="evenodd" d="M14.8375 15.23984375v.99296875h1.59296875c.225 0 .45.225.45.44296875 0 .20625-.225.375-.45.375H14.8375V18.3625c0 .21875-.15546875.38671875-.37421875.38671875-.275 0-.44296875-.16796875-.44296875-.38671875v-3.5484375c0-.22421875.16875-.3875.44296875-.3875H16.65625c.275 0 .4375.16328125.4375.3875 0 .2-.1625.425-.4375.425H14.8375v.00078125z"/>
      </g>
      <path fill="rgb(202,209,216)" fill-rule="evenodd" d="M19.53125 21.09375H4.6875v.78125h14.84375c.4296875 0 .78125-.3515625.78125-.78125v-.78125c0 .4296875-.3515625.78125-.78125.78125z"/>
    </g>
  </g>
</svg>
