<svg xmlns="http://www.w3.org/2000/svg" xmlns:xlink="http://www.w3.org/1999/xlink" width="21.705" height="34" viewBox="0 0 21.705 34">
  <defs>
    <rect id="rect-1" width="21.705" height="34" x="0" y="0"/>
    <mask id="mask-2" maskContentUnits="userSpaceOnUse" maskUnits="userSpaceOnUse">
      <rect width="21.705" height="34" x="0" y="0" fill="black"/>
      <use fill="white" xlink:href="#rect-1"/>
    </mask>
    <rect id="rect-3" width="10.941" height="34.075" x="5.379" y="-.075"/>
    <path id="path-4" fill-rule="evenodd" d="M16.15309027 16.5100831L6.20507686.21827949c-.17308745-.28083478-.45923495-.29331928-.6394019-.0221135-.18016695.2704753-.18635621.71872186-.01411661 1.00161525l9.64859714 15.80205275-9.64863953 15.80211916c-.1722396.2828934-.16605034.73113996.0141166 1.00161525C5.65308773 33.93498765 5.7661054 34 5.87827522 34c.11924933 0 .23756602-.07331322.32675926-.21861151l9.9480558-16.29180363c.16694057-.27392846.16694057-.7055733 0-.97950175z"/>
    <mask id="mask-5" x="0" y="0" maskContentUnits="userSpaceOnUse" maskUnits="userSpaceOnUse">
      <rect width="21.705" height="34" x="0" y="0" fill="black"/>
      <use fill="white" xlink:href="#path-4"/>
    </mask>
    <mask id="mask-6" x="0" y="0" maskContentUnits="userSpaceOnUse" maskUnits="userSpaceOnUse">
      <rect width="21.705" height="34" x="0" y="0" fill="white"/>
      <use fill="black" xlink:href="#path-4"/>
    </mask>
    <path id="path-7" fill-rule="evenodd" d="M16.15309027 16.5100831L6.20507686.21827949c-.17308745-.28083478-.45923495-.29331928-.6394019-.0221135-.18016695.2704753-.18635621.71872186-.01411661 1.00161525l9.64859714 15.80205275-9.64863953 15.80211916c-.1722396.2828934-.16605034.73113996.0141166 1.00161525C5.65308773 33.93498765 5.7661054 34 5.87827522 34c.11924933 0 .23756602-.07331322.32675926-.21861151l9.9480558-16.29180363c.16694057-.27392846.16694057-.7055733 0-.97950175z"/>
    <mask id="mask-8" x="0" y="0" maskContentUnits="userSpaceOnUse" maskUnits="userSpaceOnUse">
      <rect width="21.705" height="34" x="0" y="0" fill="black"/>
      <use fill="white" xlink:href="#path-7"/>
    </mask>
    <mask id="mask-9" x="0" y="0" maskContentUnits="userSpaceOnUse" maskUnits="userSpaceOnUse">
      <rect width="21.705" height="34" x="0" y="0" fill="white"/>
      <use fill="black" xlink:href="#path-7"/>
    </mask>
  </defs>
  <g>
    <use fill="none" xlink:href="#rect-1"/>
    <g mask="url(#mask-2)">
      <g>
        <use fill="rgb(128,128,128)" xlink:href="#path-4"/>
        <use fill-opacity="0" stroke="rgb(128,128,128)" stroke-linecap="butt" stroke-linejoin="miter" stroke-width="2" mask="url(#mask-5)" xlink:href="#path-4"/>
        <use fill-opacity="0" stroke="rgb(128,128,128)" stroke-linecap="butt" stroke-linejoin="miter" stroke-width="2" mask="url(#mask-6)" xlink:href="#path-4"/>
      </g>
      <g>
        <use fill="rgb(128,128,128)" xlink:href="#path-7"/>
        <use fill-opacity="0" stroke="rgb(128,128,128)" stroke-linecap="butt" stroke-linejoin="miter" stroke-width="2" mask="url(#mask-8)" xlink:href="#path-7"/>
        <use fill-opacity="0" stroke="rgb(128,128,128)" stroke-linecap="butt" stroke-linejoin="miter" stroke-width="2" mask="url(#mask-9)" xlink:href="#path-7"/>
      </g>
    </g>
  </g>
</svg>
