<svg xmlns="http://www.w3.org/2000/svg" width="38.171" height="23.892" viewBox="0 0 38.171 23.892">
  <g>
    <path fill="rgb(0,82,190)" fill-rule="evenodd" d="M37.0509232 22.12228592c-.16808396 0-.33761693-.0447158-.4941089-.13586726l-9.09537134-5.30914224c-.38253593-.22357904-.62451888-.68449583-.62451888-1.19184826V8.40657184c0-.5056326.24198295-.96826922.62451888-1.19184826l9.09537134-5.30914224c.34631093-.20294097.75637786-.17886323 1.0838518.06363404.32747394.24249726.5274359.66901727.5274359 1.12649438v17.6971408c0 .45919695-.19996196.88399712-.5274359 1.12649439-.17822697.13586726-.38398493.20294097-.5897429.20294097z"/>
    <path fill="rgb(0,51,122)" fill-rule="evenodd" d="M26.83837308 11.946v3.53942816c0 .5056326.24198295.96826922.62451888 1.19184826l9.09537134 5.30914224c.15649197.09115145.32457594.13586726.4941089.13586726.20575797 0 .41151593-.06707371.5911919-.20122113.32747394-.24249727.5274359-.66901728.5274359-1.12649439V11.946H26.83837308z"/>
    <path fill="rgb(38,129,255)" fill-rule="evenodd" d="M24.97495942 23.892H4.10066925C1.84022966 23.892 0 21.70952462 0 19.02485632V4.86714368C0 2.18419522 1.83878066 0 4.10066925 0h20.87429017c2.26043959 0 4.10066925 2.18247538 4.10066925 4.86714368v14.15771264C29.07417967 21.70780478 27.235399 23.892 24.97495942 23.892z"/>
    <path fill="rgb(0,82,190)" fill-rule="evenodd" d="M0 11.946v7.07885632C0 21.70780478 1.83878066 23.892 4.10066925 23.892h20.87429017c2.26043959 0 4.10066925-2.18247538 4.10066925-4.86714368V11.946H0z"/>
    <path fill="rgb(188,234,249)" fill-rule="evenodd" d="M24.0418036 14.5997112h-8.1998895c-.6172739 0-1.1186278-.5950642-1.1186278-1.32771552V6.63513792c0-.7326513.5013539-1.32771552 1.1186278-1.32771552h8.1998895c.61727388 0 1.11862779.59506421 1.11862779 1.32771552v6.63685776c0 .73437115-.49990491 1.32771552-1.1186278 1.32771552z"/>
    <path fill="rgb(0,51,122)" fill-rule="evenodd" d="M10.25022412 18.58285776H5.03237608c-.61727389 0-1.1186278-.59506421-1.1186278-1.32771552s.50135391-1.32771552 1.1186278-1.32771552h5.21784804c.61727389 0 1.1186278.59506421 1.1186278 1.32771552s-.50135391 1.32771552-1.1186278 1.32771552z"/>
    <path fill="rgb(0,82,190)" fill-rule="evenodd" d="M10.25022412 13.27371552H5.03237608c-.61727389 0-1.1186278-.59506421-1.1186278-1.32771552s.50135391-1.32771552 1.1186278-1.32771552h5.21784804c.61727389 0 1.1186278.59506421 1.1186278 1.32771552s-.50135391 1.32771552-1.1186278 1.32771552z"/>
    <path fill="rgb(0,51,122)" fill-rule="evenodd" d="M5.03237608 13.27371552h5.21784804c.61727389 0 1.1186278-.59506421 1.1186278-1.32771552H3.91374828c0 .73265131.50135391 1.32771552 1.1186278 1.32771552z"/>
    <path fill="rgb(139,185,255)" fill-rule="evenodd" d="M14.7232863 11.946v1.32771552c0 .73265131.5013539 1.32771552 1.1186278 1.32771552h8.1998895c.61727388 0 1.11862779-.59506421 1.11862779-1.32771552V11.946H14.7232863z"/>
  </g>
</svg>
