<?xml version="1.0" encoding="utf-8"?>
<!-- Generator: Adobe Illustrator 17.0.0, SVG Export Plug-In . SVG Version: 6.00 Build 0)  -->
<!DOCTYPE svg PUBLIC "-//W3C//DTD SVG 1.1//EN" "http://www.w3.org/Graphics/SVG/1.1/DTD/svg11.dtd">
<svg version="1.1" id="Layer_1" xmlns="http://www.w3.org/2000/svg" xmlns:xlink="http://www.w3.org/1999/xlink" x="0px" y="0px"
	 width="60px" height="60px" viewBox="0 0 60 60" enable-background="new 0 0 60 60" xml:space="preserve">
<g>
	<g>
		
			<ellipse id="ellipse-2_1_" fill="none" stroke="#FFFFFF" stroke-width="2" stroke-linecap="round" stroke-linejoin="round" stroke-miterlimit="10" cx="30" cy="30" rx="28.333" ry="28.333"/>
	</g>
</g>
<g>
	<ellipse fill="none" stroke="#FFFFFF" stroke-width="2" stroke-miterlimit="10" cx="30.023" cy="25.259" rx="7.441" ry="6.998"/>
	<path fill="none" stroke="#FFFFFF" stroke-width="2" stroke-linecap="round" stroke-linejoin="round" stroke-miterlimit="10" d="
		M39.291,36.288c7.286,0,6.621,0,6.621,0s0.904-6.926-8.449-8.225c0,0,4.659,0.048,5.737-4.236c1.043-4.143-4.451-9.06-9.492-5.071"
		/>
	<path fill="none" stroke="#FFFFFF" stroke-width="2" stroke-linecap="round" stroke-linejoin="round" stroke-miterlimit="10" d="
		M25.885,18.539c0,0-3.06-2.628-6.885-0.278s-3.234,9.184,3.581,9.802c0,0-9.145,0.804-8.484,8.225h6.644"/>
	<path fill="none" stroke="#FFFFFF" stroke-width="2" stroke-linecap="round" stroke-linejoin="round" stroke-miterlimit="10" d="
		M18.896,42.72c0,0,0.235-5.292,4.068-7.916c3.833-2.624,6.613-2.533,7.058-2.547s10.64,0.691,10.918,10.462H18.896z"/>
</g>
</svg>
