<svg xmlns="http://www.w3.org/2000/svg" xmlns:xlink="http://www.w3.org/1999/xlink" width="22" height="22" viewBox="0 0 22 22">
  <defs>
    <rect id="rect-1" width="22" height="22" x="0" y="0"/>
    <mask id="mask-2" maskContentUnits="userSpaceOnUse" maskUnits="userSpaceOnUse">
      <rect width="22" height="22" x="0" y="0" fill="black"/>
      <use fill="white" xlink:href="#rect-1"/>
    </mask>
  </defs>
  <g>
    <use fill="none" xlink:href="#rect-1"/>
    <g mask="url(#mask-2)">
      <path fill="rgb(140,140,140)" fill-rule="evenodd" d="M14.90701953 6.42980078l-.91239844-.9124414-7.58553125 7.5853164c-.93860937.9385664-.93860937 2.46576172 0 3.40441406.45413672.45422266 1.05866407.70430079 1.70225.70430079.64358594 0 1.24811329-.2501211 1.70229297-.70430079l10.18741797-10.1876328c1.44370703-1.44383595 1.44370703-3.7929375 0-5.2366875-1.44375-1.44375-3.79289453-1.44375-5.23664453 0L2.37789063 13.46928515c-1.9489336 1.94893359-1.9489336 5.1200703 0 7.06904687C3.3523789 21.51277734 4.63241797 22 5.91245703 22s2.56007813-.48717969 3.53448047-1.46166797l9.78432813-9.78432812-.91239844-.91244141-9.78432813 9.78432813c-1.44585547 1.44576953-3.7984375 1.44576953-5.24420703 0-1.4458125-1.44585547-1.4458125-3.79839454 0-5.24420704L15.67676172 1.99525391c.9406289-.94058594 2.47121875-.94058594 3.41184766 0 .9406289.9406289.94058593 2.47117578 0 3.41184765L8.90110547 15.59473438c-.21046094.21046093-.49096094.32639062-.7898086.32639062-.29884765 0-.57939062-.11592969-.78976562-.32639062-.43548828-.43553125-.43548828-1.14417188 0-1.57966016l7.58548828-7.58527344z"/>
    </g>
  </g>
</svg>
