{
  "project_info": {
    "project_number": "108677900958",
    "firebase_url": "https://centrimlife.firebaseio.com",
    "project_id": "centrimlife",
    "storage_bucket": "centrimlife.appspot.com"
  },
  "client": [
    {
      "client_info": {
        "mobilesdk_app_id": "1:108677900958:android:d5d7a0fc903fea10d3e98f",
        "android_client_info": {
          "package_name": "com.ecaret.centrimlife"
        }
      },
      "oauth_client": [
        {
          "client_id": "108677900958-59s42443pgcogo2uekcmq3qqh07d94ij.apps.googleusercontent.com",
          "client_type": 3
        }
      ],
      "api_key": [
        {
          "current_key": "AIzaSyBuEav8XOQaNUWQ8TWYJs52Ua8p3nlrflc"
        }
      ],
      "services": {
        "appinvite_service": {
          "other_platform_oauth_client": [
            {
              "client_id": "108677900958-59s42443pgcogo2uekcmq3qqh07d94ij.apps.googleusercontent.com",
              "client_type": 3
            },
            {
              "client_id": "108677900958-2t9qevb0ist0ein5m0flq21lo0n5smiv.apps.googleusercontent.com",
              "client_type": 2,
              "ios_info": {
                "bundle_id": "com.ecaret.centrimlifehomecare"
              }
            }
          ]
        }
      }
    },
    {
      "client_info": {
        "mobilesdk_app_id": "1:108677900958:android:d0acbf3147348c8dd3e98f",
        "android_client_info": {
          "package_name": "com.ecaret.centrimlifehomecare"
        }
      },
      "oauth_client": [
        {
          "client_id": "108677900958-59s42443pgcogo2uekcmq3qqh07d94ij.apps.googleusercontent.com",
          "client_type": 3
        }
      ],
      "api_key": [
        {
          "current_key": "AIzaSyBuEav8XOQaNUWQ8TWYJs52Ua8p3nlrflc"
        }
      ],
      "services": {
        "appinvite_service": {
          "other_platform_oauth_client": [
            {
              "client_id": "108677900958-59s42443pgcogo2uekcmq3qqh07d94ij.apps.googleusercontent.com",
              "client_type": 3
            },
            {
              "client_id": "108677900958-2t9qevb0ist0ein5m0flq21lo0n5smiv.apps.googleusercontent.com",
              "client_type": 2,
              "ios_info": {
                "bundle_id": "com.ecaret.centrimlifehomecare"
              }
            }
          ]
        }
      }
    },
    {
      "client_info": {
        "mobilesdk_app_id": "1:108677900958:android:db8bc004d74d6538d3e98f",
        "android_client_info": {
          "package_name": "com.ecaret.centrimstaff"
        }
      },
      "oauth_client": [
        {
          "client_id": "108677900958-59s42443pgcogo2uekcmq3qqh07d94ij.apps.googleusercontent.com",
          "client_type": 3
        }
      ],
      "api_key": [
        {
          "current_key": "AIzaSyBuEav8XOQaNUWQ8TWYJs52Ua8p3nlrflc"
        }
      ],
      "services": {
        "appinvite_service": {
          "other_platform_oauth_client": [
            {
              "client_id": "108677900958-59s42443pgcogo2uekcmq3qqh07d94ij.apps.googleusercontent.com",
              "client_type": 3
            },
            {
              "client_id": "108677900958-2t9qevb0ist0ein5m0flq21lo0n5smiv.apps.googleusercontent.com",
              "client_type": 2,
              "ios_info": {
                "bundle_id": "com.ecaret.centrimlifehomecare"
              }
            }
          ]
        }
      }
    },
    {
      "client_info": {
        "mobilesdk_app_id": "1:108677900958:android:37a8f0dbba20bd69d3e98f",
        "android_client_info": {
          "package_name": "com.ecaret.sancarlo"
        }
      },
      "oauth_client": [
        {
          "client_id": "108677900958-59s42443pgcogo2uekcmq3qqh07d94ij.apps.googleusercontent.com",
          "client_type": 3
        }
      ],
      "api_key": [
        {
          "current_key": "AIzaSyBuEav8XOQaNUWQ8TWYJs52Ua8p3nlrflc"
        }
      ],
      "services": {
        "appinvite_service": {
          "other_platform_oauth_client": [
            {
              "client_id": "108677900958-59s42443pgcogo2uekcmq3qqh07d94ij.apps.googleusercontent.com",
              "client_type": 3
            },
            {
              "client_id": "108677900958-2t9qevb0ist0ein5m0flq21lo0n5smiv.apps.googleusercontent.com",
              "client_type": 2,
              "ios_info": {
                "bundle_id": "com.ecaret.centrimlifehomecare"
              }
            }
          ]
        }
      }
    },
    {
      "client_info": {
        "mobilesdk_app_id": "1:108677900958:android:c84d34c70b142126d3e98f",
        "android_client_info": {
          "package_name": "com.ecaret.trinitycare"
        }
      },
      "oauth_client": [
        {
          "client_id": "108677900958-59s42443pgcogo2uekcmq3qqh07d94ij.apps.googleusercontent.com",
          "client_type": 3
        }
      ],
      "api_key": [
        {
          "current_key": "AIzaSyBuEav8XOQaNUWQ8TWYJs52Ua8p3nlrflc"
        }
      ],
      "services": {
        "appinvite_service": {
          "other_platform_oauth_client": [
            {
              "client_id": "108677900958-59s42443pgcogo2uekcmq3qqh07d94ij.apps.googleusercontent.com",
              "client_type": 3
            },
            {
              "client_id": "108677900958-2t9qevb0ist0ein5m0flq21lo0n5smiv.apps.googleusercontent.com",
              "client_type": 2,
              "ios_info": {
                "bundle_id": "com.ecaret.centrimlifehomecare"
              }
            }
          ]
        }
      }
    }
  ],
  "configuration_version": "1"
}